Combining 400_250
Observed CL_s:  0.5348172946071953
Expected CL_s (-2 sigma), (-1  sigma), median, (1 sigma), (2 sigma):  [array(0.08514246), array(0.18591673), array(0.37441004), array(0.64716865), array(0.88705939)]
