Combining 400_0
Observed CL_s:  4.7490597051260946e-12
Expected CL_s (-2 sigma), (-1  sigma), median, (1 sigma), (2 sigma):  [array(2.2981855e-18), array(1.97375009e-15), array(1.39959149e-12), array(6.96227661e-10), array(1.88994313e-07)]
