Combining 600_0
Observed CL_s:  6.233154576574195e-05
Expected CL_s (-2 sigma), (-1  sigma), median, (1 sigma), (2 sigma):  [array(1.77655902e-08), array(8.50841015e-07), array(3.4237145e-05), array(0.00099285), array(0.01641879)]
