Combining 800_400
Observed CL_s: 0.028217638847562385
Expected CL_s (-2 sigma), (-1  sigma), median, (1 sigma), (2 sigma): [array(0.00039744), array(0.00318755), array(0.02217691), array(0.11765768), array(0.39593976)]
